
Attaching package: ‘DT’

The following objects are masked from ‘package:shiny’:

    dataTableOutput, renderDataTable

Error in library(manhattanly) : there is no package called ‘manhattanly’
Calls: runApp ... sourceUTF8 -> eval -> eval -> ..stacktraceon.. -> library
Execution halted
